#FIG 3.2  Produced by xfig version 3.2.6a
Landscape
Center
Inches
Letter
100.00
Single
-2
1200 2
0 32 #c9c9c9
0 33 #dfd8df
2 1 0 3 0 7 50 -1 -1 0.000 0 0 -1 1 0 2
	1 1 5.00 90.00 120.00
	 4196 2998 7986 2998
2 1 0 3 0 7 50 -1 -1 0.000 0 0 -1 0 0 2
	 4826 2098 5446 2098
2 1 0 3 0 7 50 -1 -1 0.000 0 0 -1 0 0 2
	 4836 2388 5996 2388
2 1 0 3 0 7 50 -1 -1 0.000 0 0 -1 0 0 2
	 4846 2688 5056 2688
2 1 1 3 0 7 50 -1 -1 8.000 0 0 -1 0 0 2
	 5996 2978 5996 1508
2 1 0 3 0 7 50 -1 -1 0.000 0 0 -1 0 0 2
	 6036 2688 7196 2688
2 1 0 3 0 7 50 -1 -1 0.000 0 0 -1 0 0 2
	 6016 2388 6226 2388
2 1 0 3 0 7 50 -1 -1 0.000 0 0 -1 0 0 2
	 6026 2098 6236 2098
2 1 1 3 0 7 50 -1 -1 8.000 0 0 -1 0 0 2
	 7216 2988 7216 1518
2 1 0 3 0 7 50 -1 -1 0.000 0 0 -1 0 0 2
	 4186 2098 4806 2098
2 1 1 3 0 7 50 -1 -1 6.000 0 0 -1 0 0 2
	 5426 2098 6006 2098
2 1 1 3 0 7 50 -1 -1 6.000 0 0 -1 0 0 2
	 6246 2098 7206 2098
2 1 1 3 0 7 50 -1 -1 6.000 0 0 -1 0 0 2
	 6236 2388 7196 2388
2 1 1 3 0 7 50 -1 -1 6.000 0 0 -1 0 0 2
	 5046 2688 6006 2688
2 1 0 3 0 7 50 -1 -1 0.000 0 0 -1 0 0 2
	 4176 2688 4386 2688
2 1 1 3 0 7 50 -1 -1 6.000 0 0 -1 0 0 2
	 4406 2688 4826 2688
2 1 1 3 0 7 50 -1 -1 8.000 0 0 -1 0 0 2
	 4806 2978 4806 1508
2 1 1 3 0 7 50 -1 -1 6.000 0 0 -1 0 0 2
	 4501 2382 4801 2382
2 1 0 3 0 7 50 -1 -1 0.000 0 0 -1 0 0 2
	 4191 2382 4501 2382
2 1 0 1 0 7 50 -1 -1 0.000 0 0 -1 0 0 2
	 4386 2633 4386 2787
2 1 0 1 0 7 50 -1 -1 0.000 0 0 -1 0 0 2
	 5519 1996 5519 2189
2 1 0 1 0 7 50 -1 -1 0.000 0 0 -1 0 0 2
	 6228 2281 6228 2474
2 1 0 1 0 7 50 -1 -1 0.000 0 0 -1 0 0 2
	 6243 1986 6243 2179
2 1 0 1 0 7 50 -1 -1 0.000 0 0 -1 0 0 2
	 4593 2305 4593 2459
2 1 0 1 0 7 50 -1 -1 0.000 0 0 -1 0 0 2
	 5138 2575 5138 2768
2 1 0 2 0 7 50 -1 -1 0.000 0 0 -1 1 0 2
	1 1 1.00 60.00 120.00
	 6375 1425 6000 1650
2 1 0 2 0 7 50 -1 -1 0.000 0 0 -1 1 0 2
	1 1 1.00 60.00 120.00
	 6375 1425 7200 1725
2 1 0 2 0 7 50 -1 -1 0.000 0 0 -1 1 0 2
	1 1 1.00 60.00 120.00
	 5386 1888 4591 2354
2 1 0 2 0 7 50 -1 -1 0.000 0 0 -1 1 0 2
	1 1 1.00 60.00 120.00
	 5386 1888 5519 2061
2 1 0 2 0 7 50 -1 -1 0.000 0 0 -1 1 0 2
	1 1 1.00 60.00 120.00
	 5381 1897 5128 2576
4 0 0 50 -1 2 14 0.0000 2 165 120 4186 3218 0\001
4 0 0 50 -1 2 14 0.0000 2 165 120 4766 3228 1\001
4 0 0 50 -1 2 14 0.0000 2 240 615 4206 2018 $k_0$\001
4 0 0 50 -1 2 14 0.0000 2 165 120 5936 3228 2\001
4 0 0 50 -1 2 14 0.0000 2 165 120 7156 3218 3\001
4 0 0 50 -1 2 14 0.0000 2 165 570 7426 3288 Ticks\001
4 0 0 50 -1 2 14 0.0000 2 240 690 4200 2325 $k_m$\001
4 0 0 50 -1 2 14 0.0000 2 240 630 4200 2625 $k_n$\001
4 0 0 50 -1 0 14 0.0000 2 165 1200 6150 1425 Global ticks\001
4 0 0 50 -1 0 14 0.0000 2 165 1080 4950 1875 Local ticks\001
4 0 0 50 -1 2 14 0.0000 2 225 945 4342 1438 exchange\001
4 0 0 50 -1 2 14 0.0000 2 225 2325 3758 1267 Input/Output message\001
